…
library(fable.tscount)
#> Loading required package: fabletools
library(tsibble)
#> 
#> Attaching package: 'tsibble'
#> The following objects are masked from 'package:base':
#> 
#>     intersect, setdiff, union
ecoli <- tsibble(
  week = yearweek(paste0(tscount::ecoli$year, " W", tscount::ecoli$week)),
  cases = tscount::ecoli$cases,
  index = "week"
) 
ecoli
#> # A tsibble: 646 x 2 [1W]
#>        week cases
#>      <week> <dbl>
#>  1 2001 W01     5
#>  2 2001 W02     7
#>  3 2001 W03    17
#>  4 2001 W04    18
#>  5 2001 W05    10
#>  6 2001 W06     8
#>  7 2001 W07    10
#>  8 2001 W08     9
#>  9 2001 W09    13
#> 10 2001 W10    16
#> # … with 636 more rows
```
…
``` r
ecoli %>% 
  model(TSCOUNT(cases)) %>% 
  generate(times = 10)
#> # A tsibble: 1,040 x 4 [1W]
#> # Key:       .model, .rep [10]
#>    .model         .rep      week  .sim
#>    <chr>          <chr>   <week> <dbl>
#>  1 TSCOUNT(cases) 1     2013 W21    16
#>  2 TSCOUNT(cases) 1     2013 W22    28
#>  3 TSCOUNT(cases) 1     2013 W23    25
#>  4 TSCOUNT(cases) 1     2013 W24    16
#>  5 TSCOUNT(cases) 1     2013 W25    21
#>  6 TSCOUNT(cases) 1     2013 W26    21
#>  7 TSCOUNT(cases) 1     2013 W27    24
#>  8 TSCOUNT(cases) 1     2013 W28    16
#>  9 TSCOUNT(cases) 1     2013 W29    19
#> 10 TSCOUNT(cases) 1     2013 W30    22
#> # … with 1,030 more rows
```
…
